<?xml version="1.0"?>
<svg xmlns="http://www.w3.org/2000/svg" xmlns:lc="http://www.librecad.org" xmlns:xlink="http://www.w3.org/1999/xlink" width="1213.9766126mm" height="1526.55319376mm" viewBox="0 0 1213.9766126 1526.55319376">
    <g lc:layername="Schnitt1" lc:is_locked="false" lc:is_construction="false" fill="none" stroke="black" stroke-width="1">
        <circle cx="609.7925226" cy="129.74633667" r="18.0858"/>
    </g>
    <g lc:layername="Schnitt2" lc:is_locked="false" lc:is_construction="false" fill="none" stroke="black" stroke-width="1">
        <path d="M733.63888185,1449.97341582 L746.80775033,1446.21827703 L759.8492852,1442.08672745 L772.75843108,1437.58440604 L785.53013259,1432.71695174 L798.15933434,1427.49000348 L810.64098097,1421.90920022 L822.97001707,1415.9801809 L835.14138729,1409.70858447 L847.15003622,1403.10004987 L858.9909085,1396.16021603 L870.65894874,1388.89472192 L882.14910155,1381.30920647 L893.45631157,1373.40930863 L904.5755234,1365.20066733 L915.50168167,1356.68892154 L926.22973099,1347.87971018 L936.75461599,1338.77867221 L947.07128128,1329.39144657 L957.17467148,1319.7236722 L967.05973121,1309.78098805 L976.72140509,1299.56903307 L986.15463773,1289.09344619 L995.35437377,1278.35986636 L1004.31555781,1267.37393253 L1015.35886867,1253.06036292 L1026.76502593,1237.26088055 L1037.6816107,1221.03839987 L1048.10006789,1204.40266812 L1058.01184238,1187.36343255 L1067.40837909,1169.93044039 L1076.2811229,1152.11343889 L1084.62151873,1133.92217529 L1092.42101146,1115.36639684 L1099.671046,1096.45585078 L1106.36306724,1077.20028436 L1112.48852009,1057.60944482 L1118.03884944,1037.69307939 L1123.00550019,1017.46093533 L1127.37991724,996.92275988 L1131.1535455,976.08830028 L1134.31782985,954.96730377 L1136.8642152,933.5695176 L1138.78414645,911.90468901 L1140.06906849,889.98256525 L1140.71042623,867.81289356 L1140.69966457,845.40542118 L1140.02822839,822.76989535 L1138.68756261,799.91606332 L1136.69257172,776.90073457 L1134.10183374,753.97659574 L1130.92487663,731.18946511 L1127.17790736,708.55270682 L1122.87713294,686.07968499 L1118.03876036,663.78376372 L1112.67899662,641.67830715 L1106.81404872,619.77667939 L1100.46012364,598.09224457 L1093.63342839,576.63836679 L1086.35016996,555.42841019 L1078.62655535,534.47573888 L1070.47879156,513.79371698 L1061.92308557,493.39570861 L1052.97564439,473.2950779 L1043.65267501,453.50518895 L1033.97038443,434.03940589 L1023.94497964,414.91109284 L1013.59266764,396.13361392 L1002.92965542,377.72033325 L991.97214998,359.68461495 L980.73635832,342.03982314 L969.23848744,324.79932193 L957.49474432,307.97647546 L945.49503373,291.5931123 L933.19159931,275.70089438 L920.68494694,260.2972118 L907.97926941,245.3991364 L895.07875953,231.02374008 L881.98761008,217.18809469 L868.71001387,203.90927209 L855.25016369,191.20434417 L841.61225234,179.09038279 L827.80047261,167.58445981 L813.81901729,156.7036471 L799.6720792,146.46501654 L785.36385112,136.88563998 L770.89852584,127.98258931 L756.28029617,119.77293638 L741.51335489,112.27375307 L726.60189482,105.50211123 L711.55010873,99.47508275 L696.36218944,94.20973949 L681.04232973,89.72315332 L665.5947224,86.0323961 L650.02356024,83.1545397 L634.33303606,81.106656 L618.52734265,79.90581686 L602.6106728,79.56909414 L602.01908995,79.57344038 L602.01908995,79.57344038 L602.01908995,79.57344038 L602.01908995,79.57344038 L602.01908995,79.57344038 L602.01908995,79.57344038 L602.01908995,79.57344038 L602.01908995,79.57344038 L602.01908995,79.57344038 L602.01908995,79.57344038 L602.01908995,79.57344038 L602.01908995,79.57344038 L602.01908995,79.57344038 L602.01908995,79.57344038 L602.01908995,79.57344038 L602.01908995,79.57344038 L602.01908995,79.57344038 L602.01908995,79.57344038 L602.01908995,79.57344038 L602.01908995,79.57344038 L602.01908995,79.57344038 L602.01908995,79.57344038 L602.01908995,79.57344038 L602.01908995,79.57344038 L590.80702349,79.85098793 L574.94862224,80.97616545 L559.18336869,82.94359123 L543.51753172,85.73594496 L527.95738024,89.33590636 L512.50918314,93.72615514 L497.17920932,98.88937102 L481.97372768,104.80823369 L466.89900711,111.46542287 L451.96131651,118.84361827 L437.16692477,126.92549961 L422.5221008,135.69374658 L408.03311348,145.1310389 L393.70623172,155.22005628 L379.54772441,165.94347842 L365.56386044,177.28398505 L351.76090872,189.22425586 L338.14513814,201.74697058 L324.7228176,214.8348089 L311.50021599,228.47045054 L298.4836022,242.6365752 L285.67924515,257.31586261 L273.09341371,272.49099246 L260.7323768,288.14464447 L248.6467358,304.27761073 L236.87229864,320.86839364 L225.37467861,337.87750024 L214.16954748,355.29229353 L203.27257701,373.10013654 L192.69943898,391.2883923 L182.46580516,409.84442382 L172.58734731,428.75559412 L163.0797372,448.00926622 L153.95864661,467.59280316 L145.2397473,487.49356793 L136.93871104,507.69892357 L129.07120961,528.1962331 L121.65291476,548.97285954 L114.69949827,570.0161659 L108.22663191,591.31351521 L102.24998744,612.85227049 L96.78523665,634.61979476 L91.84805129,656.60345103 L87.45410313,678.79060234 L83.61906395,701.1686117 L80.35860551,723.72484214 L77.68839958,746.44665666 L75.62411794,769.3214183 L74.17575535,792.33339308 L73.35644457,815.26465533 L73.19986499,837.98411004 L73.69629611,860.48160788 L74.83601747,882.74699954 L76.60930858,904.77013567 L79.00644896,926.54086697 L82.01771815,948.04904409 L85.63339565,969.28451771 L89.84376099,990.23713852 L94.63909369,1010.89675717 L100.00967328,1031.25322434 L105.94577928,1051.29639071 L112.43769121,1071.01610696 L119.47568859,1090.40222374 L127.05005094,1109.44459175 L135.15105778,1128.13306164 L143.76898865,1146.4574841 L152.89412305,1164.4077098 L162.51674051,1181.97358941 L172.62712056,1199.14497361 L183.21554271,1215.91171306 L194.27228648,1232.26365845 L205.78763141,1248.19066044 L217.75185701,1263.68256971 L219.39714483,1265.73499948 L220.19968926,1266.72937365 L221.00406673,1267.72177961 L221.81027403,1268.71221337 L222.61830797,1269.70067094 L223.42816535,1270.68714835 L224.23984296,1271.6716416 L225.05333761,1272.6541467 L225.8686461,1273.63465967 L226.68576523,1274.61317652 L227.5046918,1275.58969327 L228.3254226,1276.56420593 L229.14795445,1277.53671051 L229.97228414,1278.50720302 L230.79840847,1279.47567948 L231.62632424,1280.44213591 L232.45602825,1281.40656831 L233.28751731,1282.3689727 L234.12078821,1283.32934509 L234.95583775,1284.2876815 L235.79266274,1285.24397793 L236.63125998,1286.19823041 L237.47162625,1287.15043495 L238.31375838,1288.10058755 L238.70630586,1288.19424402 L239.28716672,1287.05506156 L240.35634787,1285.00617005 L241.90472341,1282.11126922 L243.92316746,1278.43405882 L246.40255414,1274.03823856 L249.33375755,1268.9875082 L252.7076518,1263.34556746 L256.51511102,1257.17611608 L260.74700931,1250.54285379 L265.39422078,1243.50948033 L270.44761955,1236.13969544 L275.89807973,1228.49719885 L281.73647543,1220.64569028 L287.95368077,1212.64886949 L294.54056985,1204.57043621 L301.4880168,1196.47409016 L308.78689571,1188.42353108 L316.42808071,1180.48245872 L324.40244591,1172.7145728 L332.70086541,1165.18357306 L341.31421334,1157.95315923 L350.2333638,1151.08703105 L359.44919091,1144.64888826 L363.95504737,1140.18807971 L360.99977534,1137.897281 L357.68733981,1135.3962046 L354.06100971,1132.68248668 L350.16405393,1129.75376342 L346.03974137,1126.607671 L341.73134095,1123.24184561 L337.28212156,1119.65392341 L332.73535212,1115.8415406 L328.13430152,1111.80233336 L323.52223867,1107.53393786 L318.94243248,1103.03399028 L314.43815185,1098.30012681 L310.05266568,1093.32998362 L305.82924288,1088.1211969 L301.81115235,1082.67140282 L298.041663,1076.97823757 L294.56404374,1071.03933732 L291.42156345,1064.85233826 L288.65749107,1058.41487657 L286.31509547,1051.72458842 L284.43764558,1044.77911001 L283.06841029,1037.57607749 L282.25065851,1030.11312707 L282.02543473,1022.51078737 L282.28769278,1015.56426485 L282.93520074,1008.7360481 L283.93289451,1002.04169827 L285.24570998,995.4967765 L286.83858305,989.11684393 L288.6764496,982.91746171 L290.72424555,976.91419096 L292.94690677,971.12259285 L295.30936917,965.55822849 L297.77656864,960.23665904 L300.31344107,955.17344564 L302.88492237,950.38414942 L305.45594842,945.88433153 L307.99145512,941.68955311 L310.45637836,937.8153753 L312.81565404,934.27735924 L315.03421806,931.09106607 L317.0770063,928.27205693 L318.90895467,925.83589297 L320.49499905,923.79813532 L321.80007535,922.17434512 L322.78911945,920.98008352 L323.42706726,920.23091165 L323.67885467,919.94239066 L323.36393701,919.51599775 L322.28895887,918.05161025 L320.52097151,915.58042965 L318.12951458,912.14330452 L315.18412771,907.78108345 L311.75435055,902.53461502 L307.90972275,896.44474779 L303.71978393,889.55233036 L299.25407374,881.8982113 L294.58213182,873.52323918 L289.77349781,864.46826259 L284.89771136,854.7741301 L280.02431209,844.48169029 L275.22283967,833.63179175 L270.56283372,822.26528304 L266.11383388,810.42301275 L261.9453798,798.14582945 L258.12701112,785.47458173 L254.72826747,772.45011816 L251.81868851,759.11328731 L249.46781387,745.50493778 L247.74518318,731.66591813 L246.7203361,717.63707694 L246.46281226,703.4592628 L246.91440637,690.81951522 L247.84218706,679.12277838 L249.21394776,667.45274117 L250.98948779,655.85214186 L253.12860647,644.36371868 L255.59110313,633.03020988 L258.3367771,621.89435372 L261.32542768,610.99888843 L264.51685421,600.38655227 L267.870856,590.10008348 L271.34723239,580.1822203 L274.90578268,570.675701 L278.50630622,561.6232638 L282.10860231,553.06764697 L285.67247028,545.05158874 L289.15770946,537.61782736 L292.52411916,530.80910109 L295.73149871,524.66814816 L298.73964743,519.23770683 L301.50836465,514.56051534 L303.99744968,510.67931194 L306.16670185,507.63683487 L307.97592049,505.47582239 L309.3849049,504.23901274 L310.63525757,504.09430056 L312.7302131,505.03431285 L315.52500574,506.75798949 L318.96135915,509.22231581 L322.98099705,512.38427713 L327.52564312,516.20085877 L332.53702105,520.62904607 L337.95685452,525.62582433 L343.72686724,531.14817889 L349.78878289,537.15309507 L356.08432516,543.59755819 L362.55521774,550.43855358 L369.14318432,557.63306656 L375.7899486,565.13808246 L382.43723426,572.9105866 L389.02676499,580.9075643 L395.50026448,589.08600089 L401.79945643,597.40288169 L407.86606453,605.81519203 L413.64181246,614.27991722 L419.06842391,622.7540426 L424.08762258,631.19455349 L428.64113216,639.55843521 L432.67067633,647.80267308 L436.22607354,656.15414853 L440.14443466,666.7614054 L443.66934822,677.64915143 L446.82161036,688.75314497 L449.62201723,700.00914433 L452.09136497,711.35290786 L454.25044973,722.72019388 L456.12006766,734.04676073 L457.72101491,745.26836673 L459.07408761,756.32077022 L460.20008192,767.13972953 L461.11979398,777.661003 L461.85401995,787.82034895 L462.42355596,797.55352571 L462.84919816,806.79629162 L463.1517427,815.48440501 L463.35198573,823.55362421 L463.47072339,830.93970754 L463.52875183,837.57841336 L463.5468672,843.40549997 L463.54586564,848.35672573 L463.5465433,852.36784895 L463.56969632,855.37462797 L463.63612085,857.31282112 L463.76661305,858.11818673 L464.33676921,858.25555275 L464.97720551,858.38628898 L465.61930116,858.50871509 L466.26287034,858.62334722 L466.90772724,858.73070154 L467.55368603,858.83129419 L468.20056091,858.92564135 L468.84816606,859.01425916 L469.49631566,859.09766378 L470.14482389,859.17637138 L470.79350494,859.2508981 L471.44217299,859.3217601 L472.09064222,859.38947355 L472.73872682,859.45455459 L473.38624097,859.51751939 L474.03299885,859.57888411 L474.67881466,859.63916489 L475.32350256,859.6988779 L475.96687675,859.7585393 L476.6087514,859.81866523 L477.24894071,859.87977187 L477.88725885,859.94237536 L478.52352001,860.00699186 L479.15753838,860.07413753 L482.93970826,847.94838681 L489.06522838,827.96251667 L495.38029008,808.64979591 L501.84579242,790.0278157 L508.42263445,772.11416722 L515.07171522,754.92644163 L521.75393379,738.48223013 L528.43018919,722.79912388 L535.06138049,707.89471405 L541.60840674,693.78659183 L548.03216698,680.49234839 L554.29356028,668.0295749 L560.35348567,656.41586255 L566.17284222,645.6688025 L571.71252897,635.80598593 L576.93344498,626.84500403 L581.79648929,618.80344795 L586.26256096,611.69890888 L590.29255905,605.548978 L593.84738259,600.37124648 L596.88793065,596.1833055 L599.37510227,593.00274622 L601.26979651,590.84715984 L602.53291242,589.73413751 L607.92629985,590.87688969 L622.22049992,594.80332016 L635.82504677,598.78748187 L648.76022797,602.83456353 L661.04633109,606.94975386 L672.7036437,611.13824155 L683.75245338,615.40521531 L694.2130477,619.75586384 L704.10571422,624.19537586 L713.45074051,628.72894007 L722.26841415,633.36174518 L730.57902271,638.09897988 L738.40285375,642.9458329 L745.76019485,647.90749293 L752.67133357,652.98914868 L759.15655749,658.19598885 L765.23615418,663.53320216 L770.93041121,669.00597731 L776.25961615,674.61950301 L781.24405657,680.37896795 L785.90402003,686.28956085 L790.25979412,692.35647042 L794.3316664,698.58488536 L798.13992444,704.97999437 L801.64372509,711.42856971 L804.25654047,716.510206 L806.82584997,721.63887582 L809.34321131,726.79602089 L811.80018222,731.96308297 L814.18832041,737.12150378 L816.49918361,742.25272507 L818.72432955,747.33818856 L820.85531593,752.35933599 L822.88370049,757.29760911 L824.80104094,762.13444964 L826.59889502,766.85129932 L828.26882043,771.42959989 L829.80237491,775.85079308 L831.19111618,780.09632063 L832.42660195,784.14762428 L833.50038995,787.98614575 L834.4040379,791.5933268 L835.12910352,794.95060915 L835.66714454,798.03943454 L836.00971868,800.84124471 L836.14838366,803.33748139 L836.0746972,805.50958631 L835.78021702,807.33900122 L835.25650085,808.80716785 L834.537369,809.67781956 L833.17131579,810.47928811 L831.13813926,811.28722901 L828.47173413,812.08958074 L825.20599511,812.87428177 L821.37481692,813.6292706 L817.01209429,814.3424857 L812.15172193,815.00186557 L806.82759456,815.59534867 L801.07360689,816.1108735 L794.92365366,816.53637853 L788.41162958,816.85980226 L781.57142936,817.06908317 L774.43694773,817.15215973 L767.04207941,817.09697044 L759.4207191,816.89145376 L751.60676155,816.5235482 L743.63410145,815.98119223 L735.53663354,815.25232433 L727.34825253,814.32488299 L719.10285314,813.1868067 L710.83433009,811.82603392 L702.57657809,810.23050316 L694.36349188,808.38815288 L689.95454359,807.28555838 L688.63730334,806.94324719 L687.42991807,806.63034292 L686.32526551,806.35088832 L685.3162234,806.10892613 L684.39566948,805.9084991 L683.55648149,805.75364997 L682.79153715,805.64842148 L682.09371422,805.5968564 L681.45589043,805.60299745 L680.87094352,805.67088739 L680.33175123,805.80456896 L679.83119129,806.0080849 L679.36214145,806.28547797 L678.91747943,806.64079091 L678.49008299,807.07806647 L678.07282986,807.60134738 L677.65859777,808.2146764 L677.24026447,808.92209627 L676.8107077,809.72764974 L676.36280518,810.63537955 L675.88943467,811.64932845 L675.38347389,812.77353918 L674.83780059,814.0120545 L673.39767089,817.28264882 L669.84490793,824.91491135 L666.18461133,832.20129216 L662.44083226,839.14523898 L658.63762191,845.75019955 L654.79903147,852.01962161 L650.94911212,857.95695291 L647.11191505,863.56564118 L643.31149145,868.84913417 L639.57189249,873.8108796 L635.91716936,878.45432522 L632.37137326,882.78291878 L628.95855535,886.800108 L625.70276684,890.50934064 L622.62805891,893.91406442 L619.75848273,897.01772709 L617.11808951,899.82377639 L614.73093041,902.33566006 L612.62105663,904.55682584 L610.81251935,906.49072146 L609.32936977,908.14079467 L608.19565905,909.5104932 L607.4354384,910.6032648 L607.07275899,911.42255721 L607.17071469,912.03524913 L608.63746994,914.26888181 L610.36093402,916.69835715 L612.31266066,919.32618492 L614.46420358,922.15487485 L616.78711652,925.18693669 L619.25295322,928.42488021 L621.83326741,931.87121513 L624.49961282,935.52845122 L627.22354319,939.39909823 L629.97661225,943.4856659 L632.73037372,947.79066397 L635.45638136,952.31660222 L638.12618888,957.06599037 L640.71135002,962.04133818 L643.18341851,967.2451554 L645.5139481,972.67995178 L647.67449251,978.34823707 L649.63660547,984.25252101 L651.37184072,990.39531336 L652.85175198,996.77912387 L654.04789301,1003.40646228 L654.93181752,1010.27983835 L655.47507925,1017.40176182 L655.64923194,1024.77474244 L655.33071528,1032.82513112 L654.34942247,1040.80094452 L652.75790106,1048.51830578 L650.61412455,1055.97019852 L647.97606643,1063.14960639 L644.9017002,1070.04951303 L641.44899935,1076.66290207 L637.67593738,1082.98275715 L633.64048777,1089.00206191 L629.40062401,1094.71379998 L625.01431962,1100.11095501 L620.53954806,1105.18651063 L616.03428285,1109.93345048 L611.55649746,1114.3447582 L607.16416541,1118.41341742 L602.91526017,1122.13241178 L598.86775524,1125.49472492 L595.07962411,1128.49334048 L591.60884028,1131.1212421 L588.51337724,1133.37141341 L585.85120849,1135.23683804 L583.68030751,1136.71049965 L582.0586478,1137.78538186 L581.04420286,1138.45446832 L585.01581283,1141.02733255 L592.90226807,1145.66667989 L600.45065142,1150.33038098 L607.67309633,1155.02300444 L614.58173624,1159.74911887 L621.1887046,1164.51329289 L627.50613486,1169.3200951 L633.54616045,1174.17409413 L639.32091482,1179.07985858 L644.84253143,1184.04195706 L650.1231437,1189.06495819 L655.17488509,1194.15343058 L660.00988905,1199.31194284 L664.64028901,1204.54506358 L669.07821842,1209.85736142 L673.33581074,1215.25340497 L677.42519939,1220.73776284 L681.35851783,1226.31500364 L685.14789951,1231.98969598 L688.80547786,1237.76640848 L692.34338634,1243.64970975 L695.77375838,1249.6441684 L699.10872743,1255.75435304 L702.36042695,1261.98483229 L705.53144383,1268.33845785 L708.55297804,1275.01151934 L711.41770193,1282.09096289 L714.12505735,1289.53198613 L716.67448612,1297.28978673 L719.06543007,1305.31956231 L721.29733103,1313.57651054 L723.36963083,1322.01582905 L725.28177129,1330.59271548 L727.03319425,1339.2623675 L728.62334154,1347.97998273 L730.05165498,1356.70075884 L731.31757641,1365.37989345 L732.42054764,1373.97258422 L733.36001052,1382.4340288 L734.13540686,1390.71942483 L734.74617851,1398.78396995 L735.19176728,1406.58286181 L735.471615,1414.07129806 L735.58516351,1421.20447634 L735.53185464,1427.9375943 L735.31113021,1434.22584958 L734.92243205,1440.02443983 L734.36520198,1445.2885627 L733.63888185,1449.97341582 "/>
    </g>
    <g lc:layername="Schnitt3" lc:is_locked="false" lc:is_construction="false" fill="none" stroke="black" stroke-width="1">
        <path d="M611.66278817,0.00994445 L629.41233571,0.563113 L647.06516955,2.01854831 L664.61459031,4.35835087 L682.05389857,7.56462116 L699.37639494,11.61945968 L716.57538003,16.5049669 L733.64415443,22.2032433 L750.57601875,28.69638938 L767.3642736,35.96650562 L784.00221957,43.9956925 L800.48315727,52.76605051 L816.8003873,62.25968013 L832.94721027,72.45868185 L848.91692677,83.34515615 L864.70283741,94.90120352 L880.29824279,107.10892444 L895.69644351,119.95041939 L910.89074018,133.40778887 L925.8744334,147.46313335 L940.64082378,162.09855332 L955.18321191,177.29614927 L969.49489839,193.03802167 L983.56918384,209.30627102 L997.39936885,226.0829978 L1010.9546522,243.36044553 L1024.15202661,261.13781913 L1037.05149,279.3600516 L1049.63629437,298.01408336 L1061.88969174,317.08685481 L1073.79493412,336.56530638 L1085.33527351,356.43637847 L1096.49396193,376.68701151 L1107.25425139,397.30414591 L1117.5993939,418.27472208 L1127.51264148,439.58568044 L1136.97724612,461.2239614 L1145.97645985,483.17650538 L1154.49353468,505.43025279 L1162.51172261,527.97214405 L1170.01427566,550.78911957 L1176.98444584,573.86811977 L1183.40548515,597.19608506 L1189.26064562,620.75995585 L1194.53317924,644.54667257 L1199.20633804,668.54317562 L1203.26337403,692.73640542 L1206.6875392,717.11330239 L1209.46208559,741.66080694 L1211.57026519,766.36585948 L1213.01600655,791.20388978 L1213.82224024,816.02267061 L1213.9766126,840.76227361 L1213.48319889,865.39879271 L1212.3460744,889.90832186 L1210.56931443,914.26695498 L1208.15699426,938.45078602 L1205.11318917,962.4359089 L1201.44197445,986.19841757 L1197.14742539,1009.71440595 L1192.23361727,1032.959968 L1186.70462538,1055.91119763 L1180.564525,1078.5441888 L1173.81739142,1100.83503542 L1166.46729994,1122.75983145 L1158.51832582,1144.29467081 L1149.97454437,1165.41564744 L1140.84003086,1186.09885527 L1131.11886058,1206.32038825 L1120.81510882,1226.05634031 L1109.93285087,1245.28280538 L1098.476162,1263.9758774 L1086.44911751,1282.1116503 L1073.85579269,1299.66621803 L1060.70026281,1316.61567451 L1047.00771211,1332.90837866 L1032.79101003,1348.54058283 L1018.06030241,1363.52371003 L1002.83401425,1377.85658296 L987.13057057,1391.53802433 L970.96839635,1404.56685685 L954.36591661,1416.94190322 L937.34155636,1428.66198615 L919.91374058,1439.72592836 L902.1008943,1450.13255254 L883.92144251,1459.8806814 L865.39381022,1468.96913766 L846.53642244,1477.39674402 L827.36770416,1485.16232319 L807.90608039,1492.26469787 L788.16997613,1498.70269078 L768.17781639,1504.47512462 L747.94802618,1509.58082209 L727.4990305,1514.01860592 L706.84925435,1517.78729879 L686.01712273,1520.88572343 L665.02106065,1523.31270254 L643.87949312,1525.06705883 L622.61084514,1526.147615 L601.23354171,1526.55319376 L579.84563166,1526.25482528 L558.56880863,1525.17261769 L537.424784,1523.31220228 L516.43516716,1520.68215842 L495.62156751,1517.29106545 L475.00559444,1513.14750272 L454.60885733,1508.26004959 L434.45296558,1502.63728542 L414.55952858,1496.28778955 L394.95015572,1489.22014133 L375.64645639,1481.44292013 L356.67003997,1472.96470528 L338.04251587,1463.79407615 L319.78549348,1453.93961209 L301.92058217,1443.40989246 L284.46939135,1432.21349659 L267.45353041,1420.35900385 L250.89460873,1407.85499359 L234.81423571,1394.71004516 L219.23402073,1380.93273792 L204.1755732,1366.53165122 L189.66050249,1351.5153644 L175.71041801,1335.89245683 L162.34692914,1319.67150786 L149.51492847,1302.75953573 L136.65392022,1284.65519113 L124.35012421,1266.3305343 L112.60659967,1247.78020823 L101.42640586,1228.99885588 L90.81260199,1209.98112023 L80.76824732,1190.72164425 L71.29640108,1171.21507091 L62.4001225,1151.45604319 L54.08247082,1131.43920405 L46.34650528,1111.15919648 L39.19528512,1090.61066343 L32.63186957,1069.7882479 L26.65931787,1048.68659284 L21.28068926,1027.30034123 L16.49904297,1005.62413604 L12.31743825,983.65262025 L8.73893433,961.38043683 L5.76659044,938.80222875 L3.40346583,915.91263898 L1.65261972,892.70631049 L0.51711137,869.17788627 L0,845.32200927 L0.10434485,821.13332248 L0.83320517,796.60646887 L2.19429016,771.76348427 L4.24625353,746.93260546 L6.9911464,722.22335372 L10.40993897,697.65166808 L14.48360144,673.23348758 L19.19310398,648.98475126 L24.5194168,624.92139815 L30.44351009,601.05936729 L36.94635404,577.41459771 L44.00891885,554.00302846 L51.6121747,530.84059856 L59.73709179,507.94324706 L68.36464031,485.32691298 L77.47579045,463.00753537 L87.05151242,441.00105326 L97.07277639,419.32340568 L107.52055256,397.99053168 L118.37581112,377.01837028 L129.61952228,356.42286053 L141.23265621,336.21994146 L153.19618311,316.4255521 L165.49107318,297.05563149 L178.09829661,278.12611868 L190.99882358,259.65295268 L204.1736243,241.65207255 L217.68587817,224.16564147 L231.54578996,207.2299751 L245.6890591,190.84636916 L260.105397,175.02960708 L274.78451506,159.79447231 L289.71612469,145.15574827 L304.88993731,131.12821841 L320.29566431,117.72666615 L335.9230171,104.96587493 L351.76170709,92.86062819 L367.80144569,81.42570936 L384.0319443,70.67590187 L400.44291433,60.62598917 L417.02406719,51.29075468 L433.76511428,42.68498184 L450.65576702,34.82345409 L467.68573679,27.72095487 L484.84473503,21.39226759 L502.12247312,15.85217571 L519.50866248,11.11546266 L536.99301452,7.19691186 L554.56524063,4.11130676 L572.21505224,1.8734308 L589.93216074,0.4980674 L607.70627754,0 L611.66278817,0.00994445 L611.66278817,0.00994445 L611.66278817,0.00994445 L611.66278817,0.00994445 L611.66278817,0.00994445 L611.66278817,0.00994445 L611.66278817,0.00994445 L611.66278817,0.00994445 L611.66278817,0.00994445 L611.66278817,0.00994445 L611.66278817,0.00994445 L611.66278817,0.00994445 L611.66278817,0.00994445 L611.66278817,0.00994445 L611.66278817,0.00994445 L611.66278817,0.00994445 L611.66278817,0.00994445 L611.66278817,0.00994445 L611.66278817,0.00994445 L611.66278817,0.00994445 L611.66278817,0.00994445 L611.66278817,0.00994445 L611.66278817,0.00994445 L611.66278817,0.00994445 L611.66278817,0.00994445 "/>
    </g>
</svg>
